{
  "@context": [
    "https://www.w3.org/2018/credentials/v1",
    "https://base.uri.europass/contexts/v1"
  ],
  "type": ["VerifiableCredential", "VerifiableAttestation", "Europass"],
  "issuedDate": "2020-07-30",
  "id": "urn:credential:5a4d5412-27e3-4540-a5e5-f3bb4d55b22c",
  "issuer": "did:ebsi:2659b154a445434a39d91149ead3bd993cb99fd5e78281b7",
  "issued": "2020-07-20T13:58:53+02:00",
  "issuanceDate": "2020-07-20T13:58:53+02:00",
  "validFrom": "2020-07-20T00:00:00+02:00",
  "credentialSubject": {
    "id": "did:ebsi:2659b154a445434a39d91149ead3bd993cb99fd5e78281g9",
    "identifier": [
      {
        "schemaID": "European Student Identifier",
        "value": "urn:schac:personalUniqueCode:int:esi:math.example.edu:xxxxxxxxxx",
        "id": "urn:schac:personalUniqueCode:int:esi:math.example.edu:xxxxxxxxxx"
      }
    ],
    "achieved": [
      {
        "id": "urn:epass:learningAchievement:1",
        "title": "Higher Education Entrance Qualification - German International ABITUR School",
        "definition": "Here you can add the type of qualification provided by specific HEI which uses this certification",
        "wasDerivedFrom": [
          {
            "id": "urn:epass:assessment:1",
            "title": "Overall Qualification Q+A",
            "additionalNote": [
              "overallPointsof36semesters 456 + overallPointsoffinalExamination 123 = totalPointsofQualification 579"
            ],
            "grade": "2.1",
            "specifiedBy": {
              "id": "urn:epass:asssessmentspec:1",
              "title": "Overall Diploma Assessment",
              "gradingScheme": {
                "id": "urn:epass:scoringschemespec:1",
                "title": "Grading scheme in Germany",
                "definition": "The Germany national grading scheme for High school consists of  six grade levels with\n                                    numerical equivalents: sehr gut \u2013 1 (very good); gut \u2013 2 (good);\n                                    befriedigend \u2013 3 (satisfatory); ausrcichend \u2013 4 (addequate);\n                                    mangelhalft  \u2013 5 (unsatisfactory- fail); ungenügend \u2013 6\n                                    (insufficient- fail). The minimum passing grade is ausrcichend \u2013\n                                    4. /n Equivalents in points: 15, 14, 13 \u2013 1 (very good); 12, 11,\n                                    10 \u2013 2 (good); 09, 08, 07\u2013 3 (satisfatory); 06, 05, 04\u2013 4\n                                    (addequate); 03, 02, 01\u2013 5 (unsatisfactory- fail); 0\u2013 6\n                                    (insufficient- fail)."
              }
            },
            "hasPart": [
              {
                "id": "urn:epass:assessment:2",
                "title": "Qualification Phase (Q) results",
                "additionalNote": ["overallPointsof36semesters 456"],
                "grade": "456"
              },
              {
                "id": "urn:epass:assessment:3",
                "title": "Final Examination results (A)",
                "additionalNote": ["overallPointsoffinalExamination 123"],
                "grade": "123"
              }
            ]
          }
        ],
        "hasPart": {
          "learningAchievements": [
            {
              "id": "achievement:ID",
              "title": "German",
              "definition": "Individual results achieved during the Qualilification phase Q",
              "additionalNote": [
                "ISCED 0232: Literature and linguistics. Currently no specific code for native language(?) (Aktuell kein spezifischer code für Muttersprache(?))"
              ],
              "wasDerivedFrom": [
                {
                  "id": "urn:assessment:ID11",
                  "title": "German semester 1",
                  "grade": "15",
                  "issuedDate": "2019-06-22"
                },
                {
                  "id": "urn:assessment:ID21",
                  "title": "German semester 2",
                  "grade": "14",
                  "issuedDate": "2019-11-22"
                },
                {
                  "id": "urn:assessment:ID31",
                  "title": "German semester 3",
                  "grade": "13",
                  "issuedDate": "2020-06-22"
                },
                {
                  "id": "urn:assessment:ID41",
                  "title": "German semester 4",
                  "grade": "12",
                  "issuedDate": "2020-11-22"
                }
              ]
            },
            {
              "id": "achievement:ID2",
              "title": "English",
              "definition": "Individual results achieved during the Qualilification phase Q",
              "additionalNote": [
                "ISCED 0232: Literature and linguistics. Currently no specific code for native language(?) (Aktuell kein spezifischer code für Muttersprache(?))"
              ],
              "wasDerivedFrom": [
                {
                  "id": "urn:assessment:ID12",
                  "title": "English semester 1",
                  "grade": "11",
                  "issuedDate": "2019-06-22"
                },
                {
                  "id": "urn:assessment:ID22",
                  "title": "English semester 2",
                  "grade": "10",
                  "issuedDate": "2019-11-22"
                },
                {
                  "id": "urn:assessment:ID32",
                  "title": "English semester 3",
                  "grade": "12",
                  "issuedDate": "2020-06-22"
                },
                {
                  "id": "urn:assessment:ID42",
                  "title": "English semester 4",
                  "grade": "13",
                  "issuedDate": "2020-11-22"
                }
              ]
            },
            {
              "id": "achievement:ID3",
              "title": "Art",
              "definition": "Individual results achieved during the Qualilification phase Q",
              "additionalNote": [
                "ISCED 0232: Literature and linguistics. Currently no specific code for native language(?) (Aktuell kein spezifischer code für Muttersprache(?))"
              ],
              "wasDerivedFrom": [
                {
                  "id": "urn:assessment:ID13",
                  "title": "Art semester 1",
                  "grade": "11",
                  "issuedDate": "2019-06-22"
                },
                {
                  "id": "urn:assessment:ID23",
                  "title": "Art semester 2",
                  "grade": "11",
                  "issuedDate": "2019-11-22"
                },
                {
                  "id": "urn:assessment:ID33",
                  "title": "Art semester 3",
                  "grade": "11",
                  "issuedDate": "2020-06-22"
                },
                {
                  "id": "urn:assessment:ID43",
                  "title": "Art semester 4",
                  "grade": "11",
                  "issuedDate": "2020-11-22"
                }
              ]
            },
            {
              "id": "achievement:ID4",
              "title": "History",
              "definition": "Individual results achieved during the Qualilification phase Q",
              "additionalNote": [
                "ISCED 0232: Literature and linguistics. Currently no specific code for native language(?) (Aktuell kein spezifischer code für Muttersprache(?))"
              ],
              "wasDerivedFrom": [
                {
                  "id": "urn:assessment:ID14",
                  "title": "History semester 1",
                  "grade": "12",
                  "issuedDate": "2019-06-22"
                },
                {
                  "id": "urn:assessment:ID24",
                  "title": "History semester 2",
                  "grade": "12",
                  "issuedDate": "2019-11-22"
                },
                {
                  "id": "urn:assessment:ID34",
                  "title": "History semester 3",
                  "grade": "12",
                  "issuedDate": "2020-06-22"
                },
                {
                  "id": "urn:assessment:ID44",
                  "title": "History semester 4",
                  "grade": "12",
                  "issuedDate": "2020-11-22"
                }
              ]
            },
            {
              "id": "achievement:ID5",
              "title": "Religion",
              "definition": "Individual results achieved during the Qualilification phase Q",
              "additionalNote": [
                "ISCED 0232: Literature and linguistics. Currently no specific code for native language(?) (Aktuell kein spezifischer code für Muttersprache(?))"
              ],
              "wasDerivedFrom": [
                {
                  "id": "urn:assessment:ID15",
                  "title": "Religion semester 1",
                  "grade": "14",
                  "issuedDate": "2019-06-22"
                },
                {
                  "id": "urn:assessment:ID25",
                  "title": "Religion semester 2",
                  "grade": "14",
                  "issuedDate": "2019-11-22"
                },
                {
                  "id": "urn:assessment:ID35",
                  "title": "Religion semester 3",
                  "grade": "13",
                  "issuedDate": "2020-06-22"
                },
                {
                  "id": "urn:assessment:ID45",
                  "title": "Religion semester 4",
                  "grade": "12",
                  "issuedDate": "2020-11-22"
                }
              ]
            },
            {
              "id": "achievement:ID6",
              "title": "Mathematics",
              "definition": "Individual results achieved during the Qualilification phase Q",
              "additionalNote": [
                "ISCED 0500 - Natural sciences, mathematics and statisticsn.f.d."
              ],
              "wasDerivedFrom": [
                {
                  "id": "urn:assessment:ID16",
                  "title": "Mathematics semester 1",
                  "grade": "14",
                  "issuedDate": "2019-06-22"
                },
                {
                  "id": "urn:assessment:ID26",
                  "title": "Mathematics semester 2",
                  "grade": "13",
                  "issuedDate": "2019-11-22"
                },
                {
                  "id": "urn:assessment:ID36",
                  "title": "Mathematics semester 3",
                  "grade": "12",
                  "issuedDate": "2020-06-22"
                },
                {
                  "id": "urn:assessment:ID46",
                  "title": "Mathematics semester 4",
                  "grade": "11",
                  "issuedDate": "2020-11-22"
                }
              ]
            },
            {
              "id": "achievement:ID7",
              "title": "Physics",
              "definition": "Individual results achieved during the Qualilification phase Q",
              "additionalNote": [
                "ISCED 0500 - Natural sciences, mathematics and statisticsn.f.d."
              ],
              "wasDerivedFrom": [
                {
                  "id": "urn:assessment:ID17",
                  "title": "Physics semester 1",
                  "grade": "13",
                  "issuedDate": "2019-06-22"
                },
                {
                  "id": "urn:assessment:ID27",
                  "title": "Physics semester 2",
                  "grade": "12",
                  "issuedDate": "2019-11-22"
                },
                {
                  "id": "urn:assessment:ID37",
                  "title": "Physics semester 3",
                  "grade": "11",
                  "issuedDate": "2020-06-22"
                },
                {
                  "id": "urn:assessment:ID47",
                  "title": "Physics semester 4",
                  "grade": "10",
                  "issuedDate": "2020-11-22"
                }
              ]
            },
            {
              "id": "achievement:ID8",
              "title": "Biology",
              "definition": "Individual results achieved during the Qualilification phase Q",
              "additionalNote": [
                "ISCED 0500 - Natural sciences, mathematics and statisticsn.f.d."
              ],
              "wasDerivedFrom": [
                {
                  "id": "urn:assessment:ID18",
                  "title": "Biology semester 1",
                  "grade": "10",
                  "issuedDate": "2019-06-22"
                },
                {
                  "id": "urn:assessment:ID28",
                  "title": "Biology semester 2",
                  "grade": "10",
                  "issuedDate": "2019-11-22"
                },
                {
                  "id": "urn:assessment:ID38",
                  "title": "Biology semester 3",
                  "grade": "10",
                  "issuedDate": "2020-06-22"
                },
                {
                  "id": "urn:assessment:ID48",
                  "title": "Biology semester 4",
                  "grade": "10",
                  "issuedDate": "2020-11-22"
                }
              ]
            },
            {
              "id": "achievement:ID9",
              "title": "Chemestry",
              "additionalNote": ["ISCED 00531 - Chemistry"],
              "wasDerivedFrom": [
                {
                  "id": "urn:assessment:ID19",
                  "title": "Chemestry semester 1",
                  "grade": "9",
                  "issuedDate": "2019-06-22"
                },
                {
                  "id": "urn:assessment:ID29",
                  "title": "Chemestry semester 2",
                  "grade": "9",
                  "issuedDate": "2019-11-22"
                }
              ]
            },
            {
              "id": "achievement:ID10",
              "title": "Physical Education",
              "definition": "Individual results achieved during the Qualilification phase Q",
              "additionalNote": [
                "ISCED 0500 - Natural sciences, mathematics and statisticsn.f.d."
              ],
              "wasDerivedFrom": [
                {
                  "id": "urn:assessment:ID110",
                  "title": "Physical Education semester 1",
                  "grade": "10",
                  "issuedDate": "2019-06-22"
                },
                {
                  "id": "urn:assessment:ID210",
                  "title": "Physical Education semester 2",
                  "grade": "9",
                  "issuedDate": "2019-11-22"
                },
                {
                  "id": "urn:assessment:ID310",
                  "title": "Physical Education semester 3",
                  "grade": "11",
                  "issuedDate": "2020-06-22"
                },
                {
                  "id": "urn:assessment:ID410",
                  "title": "Physical Education semester 4",
                  "grade": "10",
                  "issuedDate": "2020-11-22"
                }
              ]
            },
            {
              "id": "achievement:ID11",
              "title": "Mathematics",
              "definition": "Results in the final examination A",
              "additionalNote": [
                "ISCED 0500 - Natural sciences, mathematics and statisticsn.f.d."
              ],
              "wasDerivedFrom": [
                {
                  "id": "urn:assessment:ID111",
                  "title": "Mathematics written examen",
                  "grade": "14",
                  "issuedDate": "2020-06-22"
                },
                {
                  "id": "urn:assessment:ID211",
                  "title": "Mathematics oral exam",
                  "grade": "11",
                  "issuedDate": "2020-06-22"
                }
              ]
            },
            {
              "id": "achievement:ID12",
              "title": "Physics",
              "definition": "Results in the final examination A",
              "additionalNote": [
                "ISCED 0500 - Natural sciences, mathematics and statisticsn.f.d."
              ],
              "wasDerivedFrom": [
                {
                  "id": "urn:assessment:ID112",
                  "title": "Physics written examen",
                  "grade": "14",
                  "issuedDate": "2020-06-22"
                }
              ]
            },
            {
              "id": "achievement:ID13",
              "title": "English",
              "definition": "Results for Foreign languages",
              "additionalNote": ["ISCED 0023 - Languages"],
              "wasDerivedFrom": [
                {
                  "id": "urn:assessment:ID113",
                  "title": "English proficiency",
                  "grade": "C1"
                }
              ]
            },
            {
              "id": "achievement:ID14",
              "title": "English",
              "definition": "Results for Foreign languages",
              "additionalNote": ["ISCED 0023 - Languages"],
              "wasDerivedFrom": [
                {
                  "id": "urn:assessment:ID114",
                  "title": "French proficiency",
                  "grade": "B1/B2"
                }
              ]
            },
            {
              "id": "achievement:ID15",
              "title": "French",
              "definition": "Results for Subject tauch bilingually",
              "additionalNote": ["ISCED 0023 - Languages"],
              "wasDerivedFrom": [
                {
                  "id": "urn:assessment:ID115",
                  "title": "to add title",
                  "grade": "to add grade"
                }
              ]
            },
            {
              "id": "achievement:ID16",
              "title": "Graduation work",
              "definition": "Results for Foreign languages",
              "additionalNote": ["Topic:  Test work for Digital Zertificates"],
              "wasDerivedFrom": [
                {
                  "id": "urn:assessment:ID116",
                  "title": "to add title",
                  "grade": "to add grade"
                }
              ]
            }
          ]
        },
        "entitlesTo": [
          {
            "id": "urn:entitlement:ID1",
            "title": "Passed the German International Abitur",
            "definition": "The owner completed the Higher Education Entrace Qualification for admission to Higher Education instititutions",
            "issuedDate": "2020-06-24T00:00:00+00:00"
          }
        ],
        "specifiedBy": [
          {
            "id": "urn:epass:qualification:1",
            "title": "German International Abitur",
            "volumeOfLearning": "PT1440H- to update",
            "educationLevel": ["urn:uri:isced0444"],
            "creditPoints": 0,
            "maximumDuration": "P21M?",
            "entryRequirementsNote": "TO UPDATE-The minimum educational requirement for enrolment into",
            "isPartialQualification": true,
            "eqfLevel": "http://data.europa.eu/snb/eqf/4",
            "nqfLevel": "http://data.europa.eu/snb/qdr/c_bd9f8e42"
          }
        ]
      }
    ]
  },
  "credentialStatus": {
    "id": "https://uri.to.status",
    "type": "StatusList2021Entry"
  },
  "credentialSchema": {
    "id": "https://uri.to.schema",
    "type": "FullJsonSchemaValidator2021"
  }
}
