{
  "vcdm": "1.1",
  "id": {
    "base16": "0xfab56098b9070d83f8731c8b189c9406510ebfe46f4b28072dd4d4e857fb486c",
    "multibase_base58btc": "zHsfLTXNUo5xeBRMt8sGHHuKVCuQkYpCG2XyH19RgX4kb"
  },
  "verification": "Documents",
  "context": "General"
}
