{
  "@context": ["https://www.w3.org/2018/credentials/v1"],
  "id": "urn:uuid:003a1dd8-a5d2-42ef-8182-e921003a1dd8",
  "type": ["VerifiableCredential", "VerifiableAttestation", "PowerOfAttorney"],
  "issuer": "did:ebsi:zvHWX359A3CvfJnCYaAiAde",
  "issuanceDate": "2023-01-01T00:00:00Z",
  "validFrom": "2023-01-01T00:00:00Z",
  "validUntil": "2024-01-01T00:00:00Z",
  "expirationDate": "2024-01-01T00:00:00Z",
  "issued": "2023-01-01T00:00:00Z",
  "credentialSubject": {
    "id": "did:ebsi:zZeKyEJfUTGwajhNyNX928z",
    "startingDate": "2024-01-01",
    "expirationDate": "2025-12-31",
    "customsRepresentative": {
      "companyRegistrationNumber": "DE67890765",
      "vatNumber": "DE67890765",
      "customsRegistrationNumber": "DE67890765",
      "address": {
        "street": "123 Importer St.",
        "streetNr": 123,
        "zipCode": "10001",
        "city": "New York",
        "country": "USA"
      }
    },
    "relatedResource": [
      {
        "id": "http://example.com/resource/1",
        "fileName": "document.pdf",
        "mediaType": "application/pdf",
        "digestMultibase": "zQm..."
      }
    ],
    "idCard": {
      "ownerName": "John Lee",
      "expirationDate": "2025-12-31",
      "title": "Manager director",
      "registrationNumber": "1234567890",
      "email": "contact@importer.com",
      "phoneNumber": "+123456789"
    },
    "businessLicense": {
      "nameEN": "Import&Co",
      "nameCN": "进口公司",
      "registrationNumber": "BUS123456",
      "bankAccount": "1234567890",
      "address": {
        "street": "123 Importer St.",
        "streetNr": 123,
        "zipCode": "10001",
        "city": "New York",
        "country": "USA"
      }
    },
    "eori": {
      "number": "EORI123456789",
      "address": {
        "street": "123 Importer St.",
        "streetNr": 123,
        "zipCode": "10001",
        "city": "New York",
        "country": "US"
      }
    }
  },
  "credentialSchema": {
    "id": "https://api-test.ebsi.eu/trusted-schemas-registry/v2/schemas/0xf73c306c2073d8078a78b2df60bb14f450ba5a7f318d95ad92aebc9a3080239e",
    "type": "FullJsonSchemaValidator2021"
  }
}
