{
  "$schema": "https://json-schema.org/draft/2020-12/schema",
  "title": "EBSI Trusted Nodes List",
  "description": "Schema of an EBSI Trusted Nodes List",
  "type": "object",
  "allOf": [
    {
      "$ref": "./node_modules/@cef-ebsi/vcdm1.1-attestation-schema/schema.json"
    },
    {
      "properties": {
        "type": {
          "description": "Full type chain, used to identify the credential base types",
          "type": "array",
          "items": {
            "type": "string"
          },
          "contains": {
            "type": "string",
            "const": "TrustedNodesList"
          },
          "uniqueItems": true
        },
        "credentialSubject": {
          "description": "Defines additional information about the Trusted Nodes List",
          "type": "object",
          "properties": {
            "id": {
              "description": "DID of Service Ops Manager who approved the Trusted Nodes List",
              "type": "string",
              "format": "uri"
            },
            "environment": {
              "description": "Defines the environment for which the Trusted Nodes List is valid",
              "type": "string",
              "enum": ["test", "pilot", "conformance", "preprod", "prod"]
            },
            "chainId": {
              "description": "Defines the chain ID, which is part of the transaction signing process to protect against transaction replay attacks",
              "type": "number"
            },
            "version": {
              "description": "Defines the version of the Trusted Nodes List. First version MUST be 1",
              "type": "number"
            },
            "nodesTotal": {
              "description": "Defines the total number of nodes in the list",
              "type": "number"
            },
            "nodes": {
              "description": "Defines the list of nodes",
              "type": "array",
              "items": {
                "type": "object",
                "properties": {
                  "apis": {
                    "description": "MUST be a valid domain name starting with https://api-{environment}.ebsi. On production, \"-{environment}\" is skipped. The URL will therefore start with \"https://api.ebsi.\"",
                    "type": "string",
                    "format": "uri"
                  },
                  "explorer": {
                    "description": "MUST be a valid domain name starting with https://blockexplorer-{environment}.ebsi. On production, \"-{environment}\" is skipped. The URL will therefore start with \"https://blockexplorer.ebsi.\"",
                    "type": "string",
                    "format": "uri"
                  },
                  "country": {
                    "description": "MUST be a three-letter country code as per ISO 3166-1 alpha-3",
                    "type": "string",
                    "minLength": 3,
                    "maxLength": 3
                  }
                },
                "required": ["apis", "country"]
              }
            }
          },
          "required": [
            "id",
            "environment",
            "chainId",
            "version",
            "nodesTotal",
            "nodes"
          ]
        }
      },
      "required": ["credentialSubject", "termsOfUse"]
    }
  ]
}
