{
  "vcdm": "1.1",
  "id": {
    "base16": "0x2ad341190db74098b14ed7190c244110a5071dedbc4874e2861e54e1e32a6496",
    "multibase_base58btc": "z3tAxYbr8xJ2hofQinJRjfAcVd7zTGFV4FXJW1yF83KxR"
  },
  "verification": "Documents & Products",
  "context": "General"
}
