{
  "vcdm": "1.1",
  "id": {
    "base16": "0x5c6bc6d5d778034f093c8aeb5f9381e3f0229d396b0f42d0ae7e14aab5856f99",
    "multibase_base58btc": "z7DmpwC9doRxZrtQ9PBjz8qQgGWqojkGExELnrw1x8qdi"
  },
  "verification": "Documents & Products",
  "context": "General"
}
