{
  "vcdm": "1.1",
  "id": {
    "base16": "0xefb5212ed9634ab93c75a8a4ef378fcf5c558519784d30d733d2663220031076",
    "multibase_base58btc": "zH8ide7AagqpGYhzzLSy2swcsNjSaneczYvNbcRZN8gzh"
  },
  "verification": "Documents",
  "context": "Digital Public Services Access"
}
