{
  "vcdm": "1.1",
  "id": {
    "base16": "0xbe77a21356835dc09d3d8149ea832ae0a4bae0ae9c869d18219ef8f4a74b4644",
    "multibase_base58btc": "zDpWGUBenmqXzurskry9Nsk6vq2R8thh9VSeoRqguoyMD"
  },
  "verification": "Documents",
  "context": "General"
}
