{
  "vcdm": "2.0",
  "id": {
    "base16": "0x0df30d548391a0ee2a26b49ca0c78b8a25db317fa9f455f424e18836aab89d30",
    "multibase_base58btc": "zwTFt3rYS78X1rSpqdoH7KuqhftS1sEEteQsNtjcH8mD"
  },
  "verification": "Documents & Product"
}
